EESchema Schematic File Version 4
LIBS:Switching Power Regulator-cache
EELAYER 29 0
EELAYER END
$Descr A4 11693 8268
encoding utf-8
Sheet 1 1
Title ""
Date ""
Rev ""
Comp ""
Comment1 ""
Comment2 ""
Comment3 ""
Comment4 ""
$EndDescr
$Comp
L pspice:INDUCTOR L1
U 1 1 60BA0EE1
P 5250 3000
F 0 "L1" H 5250 3215 50  0000 C CNN
F 1 "500u" H 5250 3124 50  0000 C CNN
F 2 "Inductor_SMD:L_0201_0603Metric" H 5250 3000 50  0001 C CNN
F 3 "~" H 5250 3000 50  0001 C CNN
	1    5250 3000
	1    0    0    -1  
$EndComp
$Comp
L Diode:MBR0540 D13
U 1 1 60BA5B15
P 5800 3000
F 0 "D13" H 5800 2784 50  0000 C CNN
F 1 "MBR0540" H 5800 2875 50  0000 C CNN
F 2 "Diode_SMD:D_0201_0603Metric" H 5800 2825 50  0001 C CNN
F 3 "http://www.mccsemi.com/up_pdf/MBR0520~MBR0580(SOD123).pdf" H 5800 3000 50  0001 C CNN
	1    5800 3000
	-1   0    0    1   
$EndComp
$Comp
L Device:C C15
U 1 1 60BA91AC
P 6600 3400
F 0 "C15" H 6715 3446 50  0000 L CNN
F 1 "22u" H 6715 3355 50  0000 L CNN
F 2 "Capacitor_SMD:C_01005_0402Metric" H 6638 3250 50  0001 C CNN
F 3 "~" H 6600 3400 50  0001 C CNN
	1    6600 3400
	1    0    0    -1  
$EndComp
Wire Wire Line
	5950 3000 6600 3000
Wire Wire Line
	6600 3000 6600 3250
Wire Wire Line
	6600 3550 6600 4200
Wire Wire Line
	5500 3000 5550 3000
Wire Wire Line
	5550 3000 5550 3250
Connection ~ 5550 3000
Wire Wire Line
	5550 3000 5650 3000
Wire Wire Line
	5550 4200 5550 3650
$Comp
L Device:R_US R17
U 1 1 60BAC84C
P 7250 3300
F 0 "R17" H 7318 3346 50  0000 L CNN
F 1 "2k" H 7318 3255 50  0000 L CNN
F 2 "Resistor_SMD:R_0201_0603Metric" V 7290 3290 50  0001 C CNN
F 3 "~" H 7250 3300 50  0001 C CNN
	1    7250 3300
	1    0    0    -1  
$EndComp
$Comp
L Device:R_US R18
U 1 1 60BAD151
P 7250 3750
F 0 "R18" H 7318 3796 50  0000 L CNN
F 1 "2k" H 7318 3705 50  0000 L CNN
F 2 "Resistor_SMD:R_0201_0603Metric" V 7290 3740 50  0001 C CNN
F 3 "~" H 7250 3750 50  0001 C CNN
	1    7250 3750
	1    0    0    -1  
$EndComp
Wire Wire Line
	6600 3000 7250 3000
Wire Wire Line
	7250 3000 7250 3150
Connection ~ 6600 3000
$Comp
L power:GND #PWR0102
U 1 1 60BB0933
P 6600 4200
F 0 "#PWR0102" H 6600 3950 50  0001 C CNN
F 1 "GND" H 6605 4027 50  0000 C CNN
F 2 "" H 6600 4200 50  0001 C CNN
F 3 "" H 6600 4200 50  0001 C CNN
	1    6600 4200
	1    0    0    -1  
$EndComp
$Comp
L power:GND #PWR0103
U 1 1 60BB1068
P 5550 4200
F 0 "#PWR0103" H 5550 3950 50  0001 C CNN
F 1 "GND" H 5555 4027 50  0000 C CNN
F 2 "" H 5550 4200 50  0001 C CNN
F 3 "" H 5550 4200 50  0001 C CNN
	1    5550 4200
	1    0    0    -1  
$EndComp
$Comp
L Timer:NE555 U1
U 1 1 60BB2320
P 3950 3700
F 0 "U1" H 3950 4281 50  0000 C CNN
F 1 "NE555" H 3950 4190 50  0000 C CNN
F 2 "Connector_PinHeader_1.00mm:PinHeader_2x04_P1.00mm_Vertical" H 3950 3700 50  0001 C CNN
F 3 "http://www.ti.com/lit/ds/symlink/ne555.pdf" H 3950 3700 50  0001 C CNN
	1    3950 3700
	1    0    0    -1  
$EndComp
$Comp
L Device:C C16
U 1 1 60BB53E4
P 4750 4250
F 0 "C16" H 4865 4296 50  0000 L CNN
F 1 "1n" H 4865 4205 50  0000 L CNN
F 2 "Capacitor_SMD:C_01005_0402Metric" H 4788 4100 50  0001 C CNN
F 3 "~" H 4750 4250 50  0001 C CNN
	1    4750 4250
	1    0    0    -1  
$EndComp
Wire Wire Line
	4450 3900 4750 3900
Wire Wire Line
	4750 3900 4750 4100
$Comp
L Device:R_US R22
U 1 1 60BB659F
P 4600 3700
F 0 "R22" V 4395 3700 50  0000 C CNN
F 1 "3.2k" V 4486 3700 50  0000 C CNN
F 2 "Resistor_SMD:R_0201_0603Metric" V 4640 3690 50  0001 C CNN
F 3 "~" H 4600 3700 50  0001 C CNN
	1    4600 3700
	0    1    1    0   
$EndComp
Wire Wire Line
	3950 3300 3950 3000
Connection ~ 4750 3900
Connection ~ 4750 3700
Wire Wire Line
	4750 3700 4750 3900
Wire Wire Line
	4750 4400 4750 4550
Wire Wire Line
	3950 4100 3950 4550
$Comp
L power:GND #PWR0104
U 1 1 60BB95FE
P 4750 4550
F 0 "#PWR0104" H 4750 4300 50  0001 C CNN
F 1 "GND" H 4755 4377 50  0000 C CNN
F 2 "" H 4750 4550 50  0001 C CNN
F 3 "" H 4750 4550 50  0001 C CNN
	1    4750 4550
	1    0    0    -1  
$EndComp
$Comp
L power:GND #PWR0105
U 1 1 60BB9DD4
P 3950 4550
F 0 "#PWR0105" H 3950 4300 50  0001 C CNN
F 1 "GND" H 3955 4377 50  0000 C CNN
F 2 "" H 3950 4550 50  0001 C CNN
F 3 "" H 3950 4550 50  0001 C CNN
	1    3950 4550
	1    0    0    -1  
$EndComp
Wire Wire Line
	4750 3000 4750 3700
Wire Wire Line
	3950 3000 4200 3000
$Comp
L Device:R_US R21
U 1 1 60BBD93E
P 4350 3000
F 0 "R21" V 4145 3000 50  0000 C CNN
F 1 "7.2k" V 4236 3000 50  0000 C CNN
F 2 "Resistor_SMD:R_0201_0603Metric" V 4390 2990 50  0001 C CNN
F 3 "~" H 4350 3000 50  0001 C CNN
	1    4350 3000
	0    1    1    0   
$EndComp
Wire Wire Line
	4500 3000 4750 3000
Wire Wire Line
	4450 3500 4450 3450
$Comp
L Transistor_FET:BSB008NE2LX Q11
U 1 1 60BA6863
P 5450 3450
F 0 "Q11" H 5656 3496 50  0000 L CNN
F 1 "BSB008NE2LX" H 5656 3405 50  0000 L CNN
F 2 "Package_DirectFET:DirectFET_MX" H 5450 3450 50  0001 C CIN
F 3 "https://www.infineon.com/dgdl/Infineon-BSB008NE2LX-DS-v02_00-EN.pdf?fileId=db3a30432e564707012e5745ca7d000e" H 5450 3450 50  0001 L CNN
	1    5450 3450
	1    0    0    -1  
$EndComp
Wire Wire Line
	5250 3450 4450 3450
Wire Wire Line
	3450 2700 4750 2700
Wire Wire Line
	4750 2700 4750 3000
Connection ~ 4750 3000
Wire Wire Line
	3450 2700 3450 3500
$Comp
L Device:R_US R19
U 1 1 60BCDA2D
P 7900 3300
F 0 "R19" H 7968 3346 50  0000 L CNN
F 1 "2k" H 7968 3255 50  0000 L CNN
F 2 "Resistor_SMD:R_0201_0603Metric" V 7940 3290 50  0001 C CNN
F 3 "~" H 7900 3300 50  0001 C CNN
	1    7900 3300
	1    0    0    -1  
$EndComp
$Comp
L Device:R_US R20
U 1 1 60BCDA33
P 7900 3750
F 0 "R20" H 7968 3796 50  0000 L CNN
F 1 "2k" H 7968 3705 50  0000 L CNN
F 2 "Resistor_SMD:R_0201_0603Metric" V 7940 3740 50  0001 C CNN
F 3 "~" H 7900 3750 50  0001 C CNN
	1    7900 3750
	1    0    0    -1  
$EndComp
Wire Wire Line
	7250 3000 7900 3000
Wire Wire Line
	7900 3000 7900 3150
Wire Wire Line
	3450 3900 3200 3900
Wire Wire Line
	3200 3900 3200 3000
Wire Wire Line
	3200 3000 3950 3000
Connection ~ 3950 3000
Wire Wire Line
	3950 2400 3950 3000
Wire Wire Line
	3950 2400 5000 2400
Wire Wire Line
	5000 2400 5000 3000
NoConn ~ 3450 3700
Wire Wire Line
	7900 3450 7900 3600
Wire Wire Line
	7250 3450 7250 3600
Connection ~ 7250 3000
$Comp
L power:GND #PWR0106
U 1 1 60BE2AE2
P 7900 4200
F 0 "#PWR0106" H 7900 3950 50  0001 C CNN
F 1 "GND" H 7905 4027 50  0000 C CNN
F 2 "" H 7900 4200 50  0001 C CNN
F 3 "" H 7900 4200 50  0001 C CNN
	1    7900 4200
	1    0    0    -1  
$EndComp
Wire Wire Line
	7900 3900 7900 4200
$Comp
L power:GND #PWR0101
U 1 1 60BE468A
P 7250 4200
F 0 "#PWR0101" H 7250 3950 50  0001 C CNN
F 1 "GND" H 7255 4027 50  0000 C CNN
F 2 "" H 7250 4200 50  0001 C CNN
F 3 "" H 7250 4200 50  0001 C CNN
	1    7250 4200
	1    0    0    -1  
$EndComp
Wire Wire Line
	7250 3900 7250 4200
$Comp
L power:+5V #PWR0107
U 1 1 60BF404D
P 3950 2400
F 0 "#PWR0107" H 3950 2250 50  0001 C CNN
F 1 "+5V" H 3965 2573 50  0000 C CNN
F 2 "" H 3950 2400 50  0001 C CNN
F 3 "" H 3950 2400 50  0001 C CNN
	1    3950 2400
	1    0    0    -1  
$EndComp
Connection ~ 3950 2400
Text Notes 7350 7500 0    50   ~ 0
Switching Power Regulator\n
Text Notes 8150 7650 0    50   ~ 0
04/06/2021\n
Text Notes 10600 7650 0    50   ~ 0
1\n
$EndSCHEMATC
