"Id";"Designator";"Package";"Quantity";"Designation";"Supplier and ref";
1;"U4,U2,U1,U3";"MSOP-8_3x3mm_P0.65mm";4;"ADA4075-2";;;
2;"R26,R25,R24,R23,R22,R21,R20,R19,R18,R17,R16,R15,R14,R13,R12,R11,R10,R9,R8,R7,R6,R5,R4,R3,R2,R1";"R_01005_0402Metric";26;"1k";;;
3;"Q10,Q9,Q8,Q7,Q6,Q5,Q4,Q3,Q2,Q1";"TO-92S";10;"2N2219";;;
4;"D12,D11,D10,D9,D8,D7,D6,D5,D4,D3";"LED_01005_0402Metric";10;"LED";;;
5;"D2,D1";"Diode_Bridge_Diotec_MicroDil_3.0x3.0x1.8mm";2;"D_Bridge_+-AA";;;
6;"C2,C1";"C_01005_0402Metric";2;"1u";;;
7;"J1";"PinSocket_2x20_P2.54mm_Vertical_Centered_Anchor";1;"GPIO_CONNECTOR";;;
8;"H1,H2,H3,H4";"MountingHole_2.7mm_M2.5_uHAT_RPi";4;"MountingHole";;;
9;"RV2";"Potentiometer_Bourns_3214W_Vertical";1;"100k";;;
10;"C1,C2,C3,C4,C5,C7,C8,C9,C11,C12,C13";"C_0603_1608Metric";11;"1.5n";;;
11;"C6";"C_0603_1608Metric";1;"82p";;;
12;"C10,C14";"C_0603_1608Metric";2;"150p";;;
13;"R1,R3";"R_0603_1608Metric";2;"10k";;;
14;"R2,R5";"R_0603_1608Metric";2;"100k";;;
15;"R4";"R_0603_1608Metric";1;"9.1k";;;
16;"R6";"R_0603_1608Metric";1;"22k";;;
17;"R7,R8,R9";"R_0603_1608Metric";3;"470k";;;
18;"R10,R16";"R_0603_1608Metric";2;"82k";;;
19;"R11";"R_0603_1608Metric";1;"68k";;;
20;"R12";"R_0603_1608Metric";1;"1.2M";;;
21;"R13";"R_0603_1608Metric";1;"150k";;;
22;"R14";"R_0603_1608Metric";1;"56k";;;
23;"R15";"R_0603_1608Metric";1;"1.8M";;;
24;"R17";"R_0603_1608Metric";1;"120k";;;
25;"RV1";"Potentiometer_Bourns_3214W_Vertical";1;"10k";;;
26;"U1,U2";"SOT-23-6_Handsoldering";2;"ADA4807-1";;;
27;"UH1,UL1";"TSSOP-14_4.4x5mm_P0.65mm";2;"ADA4807-4";;;
28;"C15";"C_01005_0402Metric";1;"22u";;;
29;"C16";"C_01005_0402Metric";1;"1n";;;
30;"D13";"D_0201_0603Metric";1;"MBR0540";;;
31;"L1";"L_0201_0603Metric";1;"500u";;;
32;"Q11";"DirectFET_MX";1;"BSB008NE2LX";;;
33;"R17,R18,R19,R20";"R_0201_0603Metric";4;"2k";;;
34;"R21";"R_0201_0603Metric";1;"7.2k";;;
35;"R22";"R_0201_0603Metric";1;"3.2k";;;
36;"U1";"PinHeader_2x04_P1.00mm_Vertical";1;"NE555";;;
