EESchema Schematic File Version 4
EELAYER 30 0
EELAYER END
$Descr A4 11693 8268
encoding utf-8
Sheet 5 5
Title ""
Date ""
Rev ""
Comp ""
Comment1 ""
Comment2 ""
Comment3 ""
Comment4 ""
$EndDescr
Text Notes 7350 7500 0    50   ~ 0
LED Subsystem 
Text Notes 8100 7650 0    50   ~ 0
13/04/2021
Text Notes 10600 7650 0    50   ~ 0
0.1
$Comp
L Transistor_BJT:2N2219 Q5
U 1 1 6079FBB0
P 7300 5450
AR Path="/60C37703/60C54D80/6079FBB0" Ref="Q5"  Part="1" 
AR Path="/60C73D08/6079FBB0" Ref="Q?"  Part="1" 
F 0 "Q?" H 7490 5496 50  0000 L CNN
F 1 "2N2219" H 7490 5405 50  0000 L CNN
F 2 "Package_TO_SOT_THT:TO-92S" H 7500 5375 50  0001 L CIN
F 3 "http://www.onsemi.com/pub_link/Collateral/2N2219-D.PDF" H 7300 5450 50  0001 L CNN
	1    7300 5450
	1    0    0    -1  
$EndComp
$Comp
L power:VCC #PWR0101
U 1 1 607AD3E1
P 3700 700
AR Path="/60C37703/60C54D80/607AD3E1" Ref="#PWR0101"  Part="1" 
AR Path="/60C73D08/607AD3E1" Ref="#PWR?"  Part="1" 
F 0 "#PWR?" H 3700 550 50  0001 C CNN
F 1 "VCC" H 3717 873 50  0000 C CNN
F 2 "" H 3700 700 50  0001 C CNN
F 3 "" H 3700 700 50  0001 C CNN
	1    3700 700 
	1    0    0    -1  
$EndComp
Wire Wire Line
	4850 6300 5300 6300
Wire Wire Line
	4850 5450 5300 5450
Wire Wire Line
	4850 4600 5300 4600
Wire Wire Line
	4850 3750 5300 3750
Wire Wire Line
	4850 2900 5300 2900
Wire Wire Line
	4850 2050 5300 2050
Wire Wire Line
	4850 1200 5300 1200
$Comp
L Device:LED D7
U 1 1 607BA8C9
P 7400 6100
AR Path="/60C37703/60C54D80/607BA8C9" Ref="D7"  Part="1" 
AR Path="/60C73D08/607BA8C9" Ref="D?"  Part="1" 
F 0 "D?" H 7393 6316 50  0000 C CNN
F 1 "LED" H 7393 6225 50  0000 C CNN
F 2 "LED_SMD:LED_01005_0402Metric" H 7400 6100 50  0001 C CNN
F 3 "~" H 7400 6100 50  0001 C CNN
	1    7400 6100
	0    -1   -1   0   
$EndComp
$Comp
L power:GND #PWR0102
U 1 1 607BB814
P 7400 6250
AR Path="/60C37703/60C54D80/607BB814" Ref="#PWR0102"  Part="1" 
AR Path="/60C73D08/607BB814" Ref="#PWR?"  Part="1" 
F 0 "#PWR?" H 7400 6000 50  0001 C CNN
F 1 "GND" H 7405 6077 50  0000 C CNN
F 2 "" H 7400 6250 50  0001 C CNN
F 3 "" H 7400 6250 50  0001 C CNN
	1    7400 6250
	1    0    0    -1  
$EndComp
$Comp
L power:VCC #PWR0103
U 1 1 607BE1A0
P 7400 5250
AR Path="/60C37703/60C54D80/607BE1A0" Ref="#PWR0103"  Part="1" 
AR Path="/60C73D08/607BE1A0" Ref="#PWR?"  Part="1" 
F 0 "#PWR?" H 7400 5100 50  0001 C CNN
F 1 "VCC" H 7417 5423 50  0000 C CNN
F 2 "" H 7400 5250 50  0001 C CNN
F 3 "" H 7400 5250 50  0001 C CNN
	1    7400 5250
	1    0    0    -1  
$EndComp
$Comp
L Transistor_BJT:2N2219 Q3
U 1 1 607C0240
P 5750 7150
AR Path="/60C37703/60C54D80/607C0240" Ref="Q3"  Part="1" 
AR Path="/60C73D08/607C0240" Ref="Q?"  Part="1" 
F 0 "Q?" H 5940 7196 50  0000 L CNN
F 1 "2N2219" H 5940 7105 50  0000 L CNN
F 2 "Package_TO_SOT_THT:TO-92S" H 5950 7075 50  0001 L CIN
F 3 "http://www.onsemi.com/pub_link/Collateral/2N2219-D.PDF" H 5750 7150 50  0001 L CNN
	1    5750 7150
	1    0    0    -1  
$EndComp
$Comp
L Device:LED D5
U 1 1 607C024C
P 6350 7450
AR Path="/60C37703/60C54D80/607C024C" Ref="D5"  Part="1" 
AR Path="/60C73D08/607C024C" Ref="D?"  Part="1" 
F 0 "D?" H 6343 7666 50  0000 C CNN
F 1 "LED" H 6343 7575 50  0000 C CNN
F 2 "LED_SMD:LED_01005_0402Metric" H 6350 7450 50  0001 C CNN
F 3 "~" H 6350 7450 50  0001 C CNN
	1    6350 7450
	-1   0    0    1   
$EndComp
$Comp
L power:GND #PWR0104
U 1 1 607C0252
P 6500 7450
AR Path="/60C37703/60C54D80/607C0252" Ref="#PWR0104"  Part="1" 
AR Path="/60C73D08/607C0252" Ref="#PWR?"  Part="1" 
F 0 "#PWR?" H 6500 7200 50  0001 C CNN
F 1 "GND" H 6505 7277 50  0000 C CNN
F 2 "" H 6500 7450 50  0001 C CNN
F 3 "" H 6500 7450 50  0001 C CNN
	1    6500 7450
	0    -1   -1   0   
$EndComp
$Comp
L power:VCC #PWR0105
U 1 1 607C0258
P 5850 6950
AR Path="/60C37703/60C54D80/607C0258" Ref="#PWR0105"  Part="1" 
AR Path="/60C73D08/607C0258" Ref="#PWR?"  Part="1" 
F 0 "#PWR?" H 5850 6800 50  0001 C CNN
F 1 "VCC" H 5867 7123 50  0000 C CNN
F 2 "" H 5850 6950 50  0001 C CNN
F 3 "" H 5850 6950 50  0001 C CNN
	1    5850 6950
	1    0    0    -1  
$EndComp
Wire Wire Line
	5850 7650 6200 7650
$Comp
L Transistor_BJT:2N2219 Q4
U 1 1 607C57F5
P 6600 6300
AR Path="/60C37703/60C54D80/607C57F5" Ref="Q4"  Part="1" 
AR Path="/60C73D08/607C57F5" Ref="Q?"  Part="1" 
F 0 "Q?" H 6790 6346 50  0000 L CNN
F 1 "2N2219" H 6790 6255 50  0000 L CNN
F 2 "Package_TO_SOT_THT:TO-92S" H 6800 6225 50  0001 L CIN
F 3 "http://www.onsemi.com/pub_link/Collateral/2N2219-D.PDF" H 6600 6300 50  0001 L CNN
	1    6600 6300
	1    0    0    -1  
$EndComp
$Comp
L Device:LED D6
U 1 1 607C5801
P 6700 6950
AR Path="/60C37703/60C54D80/607C5801" Ref="D6"  Part="1" 
AR Path="/60C73D08/607C5801" Ref="D?"  Part="1" 
F 0 "D?" H 6693 7166 50  0000 C CNN
F 1 "LED" H 6693 7075 50  0000 C CNN
F 2 "LED_SMD:LED_01005_0402Metric" H 6700 6950 50  0001 C CNN
F 3 "~" H 6700 6950 50  0001 C CNN
	1    6700 6950
	0    -1   -1   0   
$EndComp
$Comp
L power:GND #PWR0106
U 1 1 607C5807
P 6700 7100
AR Path="/60C37703/60C54D80/607C5807" Ref="#PWR0106"  Part="1" 
AR Path="/60C73D08/607C5807" Ref="#PWR?"  Part="1" 
F 0 "#PWR?" H 6700 6850 50  0001 C CNN
F 1 "GND" H 6705 6927 50  0000 C CNN
F 2 "" H 6700 7100 50  0001 C CNN
F 3 "" H 6700 7100 50  0001 C CNN
	1    6700 7100
	1    0    0    -1  
$EndComp
$Comp
L power:VCC #PWR0107
U 1 1 607C580D
P 6700 6100
AR Path="/60C37703/60C54D80/607C580D" Ref="#PWR0107"  Part="1" 
AR Path="/60C73D08/607C580D" Ref="#PWR?"  Part="1" 
F 0 "#PWR?" H 6700 5950 50  0001 C CNN
F 1 "VCC" H 6717 6273 50  0000 C CNN
F 2 "" H 6700 6100 50  0001 C CNN
F 3 "" H 6700 6100 50  0001 C CNN
	1    6700 6100
	1    0    0    -1  
$EndComp
Wire Wire Line
	4850 7150 5150 7150
Wire Wire Line
	5450 7150 5550 7150
Wire Wire Line
	5600 6300 6400 6300
Wire Wire Line
	5600 5450 7100 5450
$Comp
L Transistor_BJT:2N2219 Q6
U 1 1 607D2A8B
P 8050 4600
AR Path="/60C37703/60C54D80/607D2A8B" Ref="Q6"  Part="1" 
AR Path="/60C73D08/607D2A8B" Ref="Q?"  Part="1" 
F 0 "Q?" H 8240 4646 50  0000 L CNN
F 1 "2N2219" H 8240 4555 50  0000 L CNN
F 2 "Package_TO_SOT_THT:TO-92S" H 8250 4525 50  0001 L CIN
F 3 "http://www.onsemi.com/pub_link/Collateral/2N2219-D.PDF" H 8050 4600 50  0001 L CNN
	1    8050 4600
	1    0    0    -1  
$EndComp
$Comp
L Device:LED D8
U 1 1 607D2A97
P 8150 5250
AR Path="/60C37703/60C54D80/607D2A97" Ref="D8"  Part="1" 
AR Path="/60C73D08/607D2A97" Ref="D?"  Part="1" 
F 0 "D?" H 8143 5466 50  0000 C CNN
F 1 "LED" H 8143 5375 50  0000 C CNN
F 2 "LED_SMD:LED_01005_0402Metric" H 8150 5250 50  0001 C CNN
F 3 "~" H 8150 5250 50  0001 C CNN
	1    8150 5250
	0    -1   -1   0   
$EndComp
$Comp
L power:GND #PWR0108
U 1 1 607D2A9D
P 8150 5400
AR Path="/60C37703/60C54D80/607D2A9D" Ref="#PWR0108"  Part="1" 
AR Path="/60C73D08/607D2A9D" Ref="#PWR?"  Part="1" 
F 0 "#PWR?" H 8150 5150 50  0001 C CNN
F 1 "GND" H 8155 5227 50  0000 C CNN
F 2 "" H 8150 5400 50  0001 C CNN
F 3 "" H 8150 5400 50  0001 C CNN
	1    8150 5400
	1    0    0    -1  
$EndComp
$Comp
L power:VCC #PWR0109
U 1 1 607D2AA3
P 8150 4400
AR Path="/60C37703/60C54D80/607D2AA3" Ref="#PWR0109"  Part="1" 
AR Path="/60C73D08/607D2AA3" Ref="#PWR?"  Part="1" 
F 0 "#PWR?" H 8150 4250 50  0001 C CNN
F 1 "VCC" H 8167 4573 50  0000 C CNN
F 2 "" H 8150 4400 50  0001 C CNN
F 3 "" H 8150 4400 50  0001 C CNN
	1    8150 4400
	1    0    0    -1  
$EndComp
$Comp
L Transistor_BJT:2N2219 Q7
U 1 1 607D3F84
P 8650 3750
AR Path="/60C37703/60C54D80/607D3F84" Ref="Q7"  Part="1" 
AR Path="/60C73D08/607D3F84" Ref="Q?"  Part="1" 
F 0 "Q?" H 8840 3796 50  0000 L CNN
F 1 "2N2219" H 8840 3705 50  0000 L CNN
F 2 "Package_TO_SOT_THT:TO-92S" H 8850 3675 50  0001 L CIN
F 3 "http://www.onsemi.com/pub_link/Collateral/2N2219-D.PDF" H 8650 3750 50  0001 L CNN
	1    8650 3750
	1    0    0    -1  
$EndComp
$Comp
L Device:LED D9
U 1 1 607D3F90
P 8750 4400
AR Path="/60C37703/60C54D80/607D3F90" Ref="D9"  Part="1" 
AR Path="/60C73D08/607D3F90" Ref="D?"  Part="1" 
F 0 "D?" H 8743 4616 50  0000 C CNN
F 1 "LED" H 8743 4525 50  0000 C CNN
F 2 "LED_SMD:LED_01005_0402Metric" H 8750 4400 50  0001 C CNN
F 3 "~" H 8750 4400 50  0001 C CNN
	1    8750 4400
	0    -1   -1   0   
$EndComp
$Comp
L power:GND #PWR0110
U 1 1 607D3F96
P 8750 4550
AR Path="/60C37703/60C54D80/607D3F96" Ref="#PWR0110"  Part="1" 
AR Path="/60C73D08/607D3F96" Ref="#PWR?"  Part="1" 
F 0 "#PWR?" H 8750 4300 50  0001 C CNN
F 1 "GND" H 8755 4377 50  0000 C CNN
F 2 "" H 8750 4550 50  0001 C CNN
F 3 "" H 8750 4550 50  0001 C CNN
	1    8750 4550
	1    0    0    -1  
$EndComp
$Comp
L power:VCC #PWR0111
U 1 1 607D3F9C
P 8750 3550
AR Path="/60C37703/60C54D80/607D3F9C" Ref="#PWR0111"  Part="1" 
AR Path="/60C73D08/607D3F9C" Ref="#PWR?"  Part="1" 
F 0 "#PWR?" H 8750 3400 50  0001 C CNN
F 1 "VCC" H 8767 3723 50  0000 C CNN
F 2 "" H 8750 3550 50  0001 C CNN
F 3 "" H 8750 3550 50  0001 C CNN
	1    8750 3550
	1    0    0    -1  
$EndComp
$Comp
L Transistor_BJT:2N2219 Q8
U 1 1 607D512B
P 9200 2900
AR Path="/60C37703/60C54D80/607D512B" Ref="Q8"  Part="1" 
AR Path="/60C73D08/607D512B" Ref="Q?"  Part="1" 
F 0 "Q?" H 9390 2946 50  0000 L CNN
F 1 "2N2219" H 9390 2855 50  0000 L CNN
F 2 "Package_TO_SOT_THT:TO-92S" H 9400 2825 50  0001 L CIN
F 3 "http://www.onsemi.com/pub_link/Collateral/2N2219-D.PDF" H 9200 2900 50  0001 L CNN
	1    9200 2900
	1    0    0    -1  
$EndComp
$Comp
L Device:LED D3
U 1 1 607D5137
P 3050 2650
AR Path="/60C37703/60C54D80/607D5137" Ref="D3"  Part="1" 
AR Path="/60C73D08/607D5137" Ref="D?"  Part="1" 
F 0 "D?" H 3043 2866 50  0000 C CNN
F 1 "LED" H 3043 2775 50  0000 C CNN
F 2 "LED_SMD:LED_01005_0402Metric" H 3050 2650 50  0001 C CNN
F 3 "~" H 3050 2650 50  0001 C CNN
	1    3050 2650
	0    -1   -1   0   
$EndComp
$Comp
L power:GND #PWR0112
U 1 1 607D513D
P 3050 2950
AR Path="/60C37703/60C54D80/607D513D" Ref="#PWR0112"  Part="1" 
AR Path="/60C73D08/607D513D" Ref="#PWR?"  Part="1" 
F 0 "#PWR?" H 3050 2700 50  0001 C CNN
F 1 "GND" H 3055 2777 50  0000 C CNN
F 2 "" H 3050 2950 50  0001 C CNN
F 3 "" H 3050 2950 50  0001 C CNN
	1    3050 2950
	1    0    0    -1  
$EndComp
$Comp
L power:VCC #PWR0113
U 1 1 607D5143
P 9300 2700
AR Path="/60C37703/60C54D80/607D5143" Ref="#PWR0113"  Part="1" 
AR Path="/60C73D08/607D5143" Ref="#PWR?"  Part="1" 
F 0 "#PWR?" H 9300 2550 50  0001 C CNN
F 1 "VCC" H 9317 2873 50  0000 C CNN
F 2 "" H 9300 2700 50  0001 C CNN
F 3 "" H 9300 2700 50  0001 C CNN
	1    9300 2700
	1    0    0    -1  
$EndComp
$Comp
L Transistor_BJT:2N2219 Q9
U 1 1 607D5E76
P 9800 2050
AR Path="/60C37703/60C54D80/607D5E76" Ref="Q9"  Part="1" 
AR Path="/60C73D08/607D5E76" Ref="Q?"  Part="1" 
F 0 "Q?" H 9990 2096 50  0000 L CNN
F 1 "2N2219" H 9990 2005 50  0000 L CNN
F 2 "Package_TO_SOT_THT:TO-92S" H 10000 1975 50  0001 L CIN
F 3 "http://www.onsemi.com/pub_link/Collateral/2N2219-D.PDF" H 9800 2050 50  0001 L CNN
	1    9800 2050
	1    0    0    -1  
$EndComp
$Comp
L Device:LED D11
U 1 1 607D5E82
P 9900 2700
AR Path="/60C37703/60C54D80/607D5E82" Ref="D11"  Part="1" 
AR Path="/60C73D08/607D5E82" Ref="D?"  Part="1" 
F 0 "D?" H 9893 2916 50  0000 C CNN
F 1 "LED" H 9893 2825 50  0000 C CNN
F 2 "LED_SMD:LED_01005_0402Metric" H 9900 2700 50  0001 C CNN
F 3 "~" H 9900 2700 50  0001 C CNN
	1    9900 2700
	0    -1   -1   0   
$EndComp
$Comp
L power:GND #PWR0114
U 1 1 607D5E88
P 9900 2850
AR Path="/60C37703/60C54D80/607D5E88" Ref="#PWR0114"  Part="1" 
AR Path="/60C73D08/607D5E88" Ref="#PWR?"  Part="1" 
F 0 "#PWR?" H 9900 2600 50  0001 C CNN
F 1 "GND" H 9905 2677 50  0000 C CNN
F 2 "" H 9900 2850 50  0001 C CNN
F 3 "" H 9900 2850 50  0001 C CNN
	1    9900 2850
	1    0    0    -1  
$EndComp
$Comp
L power:VCC #PWR0115
U 1 1 607D5E8E
P 9900 1850
AR Path="/60C37703/60C54D80/607D5E8E" Ref="#PWR0115"  Part="1" 
AR Path="/60C73D08/607D5E8E" Ref="#PWR?"  Part="1" 
F 0 "#PWR?" H 9900 1700 50  0001 C CNN
F 1 "VCC" H 9917 2023 50  0000 C CNN
F 2 "" H 9900 1850 50  0001 C CNN
F 3 "" H 9900 1850 50  0001 C CNN
	1    9900 1850
	1    0    0    -1  
$EndComp
$Comp
L Transistor_BJT:2N2219 Q10
U 1 1 607D7214
P 10450 1200
AR Path="/60C37703/60C54D80/607D7214" Ref="Q10"  Part="1" 
AR Path="/60C73D08/607D7214" Ref="Q?"  Part="1" 
F 0 "Q?" H 10640 1246 50  0000 L CNN
F 1 "2N2219" H 10640 1155 50  0000 L CNN
F 2 "Package_TO_SOT_THT:TO-92S" H 10650 1125 50  0001 L CIN
F 3 "http://www.onsemi.com/pub_link/Collateral/2N2219-D.PDF" H 10450 1200 50  0001 L CNN
	1    10450 1200
	1    0    0    -1  
$EndComp
$Comp
L Device:LED D12
U 1 1 607D7220
P 10550 1850
AR Path="/60C37703/60C54D80/607D7220" Ref="D12"  Part="1" 
AR Path="/60C73D08/607D7220" Ref="D?"  Part="1" 
F 0 "D?" H 10543 2066 50  0000 C CNN
F 1 "LED" H 10543 1975 50  0000 C CNN
F 2 "LED_SMD:LED_01005_0402Metric" H 10550 1850 50  0001 C CNN
F 3 "~" H 10550 1850 50  0001 C CNN
	1    10550 1850
	0    -1   -1   0   
$EndComp
$Comp
L power:GND #PWR0116
U 1 1 607D7226
P 10550 2000
AR Path="/60C37703/60C54D80/607D7226" Ref="#PWR0116"  Part="1" 
AR Path="/60C73D08/607D7226" Ref="#PWR?"  Part="1" 
F 0 "#PWR?" H 10550 1750 50  0001 C CNN
F 1 "GND" H 10555 1827 50  0000 C CNN
F 2 "" H 10550 2000 50  0001 C CNN
F 3 "" H 10550 2000 50  0001 C CNN
	1    10550 2000
	1    0    0    -1  
$EndComp
$Comp
L power:VCC #PWR0117
U 1 1 607D722C
P 10550 1000
AR Path="/60C37703/60C54D80/607D722C" Ref="#PWR0117"  Part="1" 
AR Path="/60C73D08/607D722C" Ref="#PWR?"  Part="1" 
F 0 "#PWR?" H 10550 850 50  0001 C CNN
F 1 "VCC" H 10567 1173 50  0000 C CNN
F 2 "" H 10550 1000 50  0001 C CNN
F 3 "" H 10550 1000 50  0001 C CNN
	1    10550 1000
	1    0    0    -1  
$EndComp
Wire Wire Line
	5600 4600 7850 4600
Wire Wire Line
	5600 2900 9000 2900
Wire Wire Line
	5600 2050 9600 2050
Wire Wire Line
	5600 1200 10250 1200
Wire Wire Line
	3700 5000 3700 4700
Wire Wire Line
	3700 4050 3700 3850
Wire Wire Line
	3700 6400 3700 6150
Wire Wire Line
	4250 4700 3700 4700
Connection ~ 3700 4700
Wire Wire Line
	3700 4700 3700 4350
Wire Wire Line
	4250 3850 3700 3850
Connection ~ 3700 3850
Wire Wire Line
	3700 3850 3700 3600
Wire Wire Line
	3700 3300 3700 3000
Wire Wire Line
	3700 1500 3700 1300
Wire Wire Line
	3700 2350 3700 2150
Wire Wire Line
	4250 1300 3700 1300
Wire Wire Line
	4250 2150 3700 2150
Connection ~ 3700 2150
Wire Wire Line
	3700 2150 3700 1800
Wire Wire Line
	4250 3000 3700 3000
Connection ~ 3700 3000
Wire Wire Line
	3700 3000 3700 2650
Wire Wire Line
	3700 1300 3700 1000
Connection ~ 3700 1300
Wire Wire Line
	4250 6400 3700 6400
Wire Wire Line
	3700 6400 3700 6600
Connection ~ 3700 6400
Wire Wire Line
	4250 1100 3550 1100
Wire Wire Line
	4250 1950 3550 1950
Connection ~ 3550 1950
Wire Wire Line
	3550 1950 3550 1100
Wire Wire Line
	4250 2800 3550 2800
Connection ~ 3550 2800
Wire Wire Line
	3550 2800 3550 1950
Wire Wire Line
	4250 3650 3550 3650
Connection ~ 3550 3650
Wire Wire Line
	3550 3650 3550 2800
Wire Wire Line
	4250 4500 3550 4500
Connection ~ 3550 4500
Wire Wire Line
	3550 4500 3550 3650
Wire Wire Line
	4250 5350 3550 5350
Wire Wire Line
	4250 6200 3550 6200
Wire Wire Line
	3100 1100 3550 1100
Text GLabel 3100 1100 0    50   Input ~ 0
VolumeKnobOutput
$Comp
L Device:D_Bridge_+-AA D1
U 1 1 6081E246
P 1750 1700
AR Path="/60C37703/60C54D80/6081E246" Ref="D1"  Part="1" 
AR Path="/60C73D08/6081E246" Ref="D?"  Part="1" 
F 0 "D?" H 2094 1746 50  0000 L CNN
F 1 "D_Bridge_+-AA" H 2094 1655 50  0000 L CNN
F 2 "Diode_SMD:Diode_Bridge_Diotec_MicroDil_3.0x3.0x1.8mm" H 1750 1700 50  0001 C CNN
F 3 "~" H 1750 1700 50  0001 C CNN
	1    1750 1700
	1    0    0    -1  
$EndComp
$Comp
L Transistor_BJT:2N2219 Q1
U 1 1 6082036A
P 2950 1700
AR Path="/60C37703/60C54D80/6082036A" Ref="Q1"  Part="1" 
AR Path="/60C73D08/6082036A" Ref="Q?"  Part="1" 
F 0 "Q?" H 3140 1746 50  0000 L CNN
F 1 "2N2219" H 3140 1655 50  0000 L CNN
F 2 "Package_TO_SOT_THT:TO-92S" H 3150 1625 50  0001 L CIN
F 3 "http://www.onsemi.com/pub_link/Collateral/2N2219-D.PDF" H 2950 1700 50  0001 L CNN
	1    2950 1700
	1    0    0    -1  
$EndComp
Text GLabel 1300 1700 0    50   Input ~ 0
ACInputAudioJack
Wire Wire Line
	1300 1400 1750 1400
Wire Wire Line
	1300 2000 1750 2000
Wire Wire Line
	1300 1400 1300 2000
Wire Wire Line
	2050 1700 2250 1700
$Comp
L pspice:CAP C1
U 1 1 6082BCB3
P 2250 1950
AR Path="/60C37703/60C54D80/6082BCB3" Ref="C1"  Part="1" 
AR Path="/60C73D08/6082BCB3" Ref="C?"  Part="1" 
F 0 "C?" H 2428 1996 50  0000 L CNN
F 1 "1u" H 2428 1905 50  0000 L CNN
F 2 "Capacitor_SMD:C_01005_0402Metric" H 2250 1950 50  0001 C CNN
F 3 "~" H 2250 1950 50  0001 C CNN
	1    2250 1950
	1    0    0    -1  
$EndComp
Wire Wire Line
	2250 2200 1450 2200
Wire Wire Line
	1450 2200 1450 1700
Wire Wire Line
	2250 1700 2750 1700
Connection ~ 2250 1700
$Comp
L power:GND #PWR0134
U 1 1 60834833
P 2250 2350
AR Path="/60C37703/60C54D80/60834833" Ref="#PWR0134"  Part="1" 
AR Path="/60C73D08/60834833" Ref="#PWR?"  Part="1" 
F 0 "#PWR?" H 2250 2100 50  0001 C CNN
F 1 "GND" H 2255 2177 50  0000 C CNN
F 2 "" H 2250 2350 50  0001 C CNN
F 3 "" H 2250 2350 50  0001 C CNN
	1    2250 2350
	1    0    0    -1  
$EndComp
$Comp
L power:VCC #PWR0135
U 1 1 6083CB05
P 3050 1500
AR Path="/60C37703/60C54D80/6083CB05" Ref="#PWR0135"  Part="1" 
AR Path="/60C73D08/6083CB05" Ref="#PWR?"  Part="1" 
F 0 "#PWR?" H 3050 1350 50  0001 C CNN
F 1 "VCC" H 3067 1673 50  0000 C CNN
F 2 "" H 3050 1500 50  0001 C CNN
F 3 "" H 3050 1500 50  0001 C CNN
	1    3050 1500
	1    0    0    -1  
$EndComp
Wire Wire Line
	3050 2100 3050 1900
$Comp
L Device:LED D10
U 1 1 6084764B
P 9300 3550
AR Path="/60C37703/60C54D80/6084764B" Ref="D10"  Part="1" 
AR Path="/60C73D08/6084764B" Ref="D?"  Part="1" 
F 0 "D?" H 9293 3766 50  0000 C CNN
F 1 "LED" H 9293 3675 50  0000 C CNN
F 2 "LED_SMD:LED_01005_0402Metric" H 9300 3550 50  0001 C CNN
F 3 "~" H 9300 3550 50  0001 C CNN
	1    9300 3550
	0    -1   -1   0   
$EndComp
$Comp
L power:GND #PWR0136
U 1 1 60847651
P 9300 3700
AR Path="/60C37703/60C54D80/60847651" Ref="#PWR0136"  Part="1" 
AR Path="/60C73D08/60847651" Ref="#PWR?"  Part="1" 
F 0 "#PWR?" H 9300 3450 50  0001 C CNN
F 1 "GND" H 9305 3527 50  0000 C CNN
F 2 "" H 9300 3700 50  0001 C CNN
F 3 "" H 9300 3700 50  0001 C CNN
	1    9300 3700
	1    0    0    -1  
$EndComp
Wire Wire Line
	3050 2400 3050 2500
Wire Wire Line
	3050 2800 3050 2950
Wire Wire Line
	2250 2200 2250 2350
Connection ~ 2250 2200
Connection ~ 3550 1100
$Comp
L Device:LED D4
U 1 1 60872F08
P 3050 4700
AR Path="/60C37703/60C54D80/60872F08" Ref="D4"  Part="1" 
AR Path="/60C73D08/60872F08" Ref="D?"  Part="1" 
F 0 "D?" H 3043 4916 50  0000 C CNN
F 1 "LED" H 3043 4825 50  0000 C CNN
F 2 "LED_SMD:LED_01005_0402Metric" H 3050 4700 50  0001 C CNN
F 3 "~" H 3050 4700 50  0001 C CNN
	1    3050 4700
	0    -1   -1   0   
$EndComp
$Comp
L power:GND #PWR0137
U 1 1 60872F0E
P 3050 5000
AR Path="/60C37703/60C54D80/60872F0E" Ref="#PWR0137"  Part="1" 
AR Path="/60C73D08/60872F0E" Ref="#PWR?"  Part="1" 
F 0 "#PWR?" H 3050 4750 50  0001 C CNN
F 1 "GND" H 3055 4827 50  0000 C CNN
F 2 "" H 3050 5000 50  0001 C CNN
F 3 "" H 3050 5000 50  0001 C CNN
	1    3050 5000
	1    0    0    -1  
$EndComp
$Comp
L Device:D_Bridge_+-AA D2
U 1 1 60872F14
P 1750 3750
AR Path="/60C37703/60C54D80/60872F14" Ref="D2"  Part="1" 
AR Path="/60C73D08/60872F14" Ref="D?"  Part="1" 
F 0 "D?" H 2094 3796 50  0000 L CNN
F 1 "D_Bridge_+-AA" H 2094 3705 50  0000 L CNN
F 2 "Diode_SMD:Diode_Bridge_Diotec_MicroDil_3.0x3.0x1.8mm" H 1750 3750 50  0001 C CNN
F 3 "~" H 1750 3750 50  0001 C CNN
	1    1750 3750
	1    0    0    -1  
$EndComp
$Comp
L Transistor_BJT:2N2219 Q2
U 1 1 60872F1A
P 2950 3750
AR Path="/60C37703/60C54D80/60872F1A" Ref="Q2"  Part="1" 
AR Path="/60C73D08/60872F1A" Ref="Q?"  Part="1" 
F 0 "Q?" H 3140 3796 50  0000 L CNN
F 1 "2N2219" H 3140 3705 50  0000 L CNN
F 2 "Package_TO_SOT_THT:TO-92S" H 3150 3675 50  0001 L CIN
F 3 "http://www.onsemi.com/pub_link/Collateral/2N2219-D.PDF" H 2950 3750 50  0001 L CNN
	1    2950 3750
	1    0    0    -1  
$EndComp
Text GLabel 1300 3750 0    50   Input ~ 0
ACOutputAudioJack
Wire Wire Line
	1300 3450 1750 3450
Wire Wire Line
	1300 4050 1750 4050
Wire Wire Line
	1300 3450 1300 4050
Wire Wire Line
	2250 4250 1450 4250
Wire Wire Line
	1450 4250 1450 3750
$Comp
L power:GND #PWR0138
U 1 1 60872F2F
P 2250 4400
AR Path="/60C37703/60C54D80/60872F2F" Ref="#PWR0138"  Part="1" 
AR Path="/60C73D08/60872F2F" Ref="#PWR?"  Part="1" 
F 0 "#PWR?" H 2250 4150 50  0001 C CNN
F 1 "GND" H 2255 4227 50  0000 C CNN
F 2 "" H 2250 4400 50  0001 C CNN
F 3 "" H 2250 4400 50  0001 C CNN
	1    2250 4400
	1    0    0    -1  
$EndComp
$Comp
L power:VCC #PWR0139
U 1 1 60872F35
P 3050 3550
AR Path="/60C37703/60C54D80/60872F35" Ref="#PWR0139"  Part="1" 
AR Path="/60C73D08/60872F35" Ref="#PWR?"  Part="1" 
F 0 "#PWR?" H 3050 3400 50  0001 C CNN
F 1 "VCC" H 3067 3723 50  0000 C CNN
F 2 "" H 3050 3550 50  0001 C CNN
F 3 "" H 3050 3550 50  0001 C CNN
	1    3050 3550
	1    0    0    -1  
$EndComp
Wire Wire Line
	3050 4150 3050 3950
Wire Wire Line
	3050 4450 3050 4550
Wire Wire Line
	3050 4850 3050 5000
Wire Wire Line
	2250 4250 2250 4400
Wire Wire Line
	5600 3750 8450 3750
Wire Wire Line
	6200 7650 6200 7450
Connection ~ 3550 5350
Wire Wire Line
	3550 5350 3550 4500
Wire Wire Line
	3550 5350 3550 6200
Wire Wire Line
	4250 5550 3700 5550
Wire Wire Line
	3700 5300 3700 5550
Connection ~ 3700 5550
Wire Wire Line
	3700 5550 3700 5850
Connection ~ 3550 6200
Wire Wire Line
	3550 7050 3550 6200
Wire Wire Line
	4250 7050 3550 7050
Connection ~ 3700 7250
Wire Wire Line
	3700 6900 3700 7250
Wire Wire Line
	4250 7250 3700 7250
Wire Wire Line
	3700 7450 3700 7250
$Comp
L power:GND #PWR0140
U 1 1 607AA6BB
P 3700 7450
AR Path="/60C37703/60C54D80/607AA6BB" Ref="#PWR0140"  Part="1" 
AR Path="/60C73D08/607AA6BB" Ref="#PWR?"  Part="1" 
F 0 "#PWR?" H 3700 7200 50  0001 C CNN
F 1 "GND" H 3705 7277 50  0000 C CNN
F 2 "" H 3700 7450 50  0001 C CNN
F 3 "" H 3700 7450 50  0001 C CNN
	1    3700 7450
	1    0    0    -1  
$EndComp
Wire Wire Line
	2050 3750 2250 3750
$Comp
L pspice:CAP C2
U 1 1 60BAEAA3
P 2250 4000
AR Path="/60C37703/60C54D80/60BAEAA3" Ref="C2"  Part="1" 
AR Path="/60C73D08/60BAEAA3" Ref="C?"  Part="1" 
F 0 "C?" H 2428 4046 50  0000 L CNN
F 1 "1u" H 2428 3955 50  0000 L CNN
F 2 "Capacitor_SMD:C_01005_0402Metric" H 2250 4000 50  0001 C CNN
F 3 "~" H 2250 4000 50  0001 C CNN
	1    2250 4000
	1    0    0    -1  
$EndComp
Connection ~ 2250 3750
Wire Wire Line
	2250 3750 2750 3750
Connection ~ 2250 4250
$Comp
L Device:R R25
U 1 1 60BB4E07
P 3050 2250
AR Path="/60C37703/60C54D80/60BB4E07" Ref="R25"  Part="1" 
AR Path="/60C73D08/60BB4E07" Ref="R?"  Part="1" 
F 0 "R?" H 3120 2296 50  0000 L CNN
F 1 "1k" H 3120 2205 50  0000 L CNN
F 2 "Resistor_SMD:R_01005_0402Metric" V 2980 2250 50  0001 C CNN
F 3 "~" H 3050 2250 50  0001 C CNN
	1    3050 2250
	1    0    0    -1  
$EndComp
$Comp
L Device:R R26
U 1 1 60BB6664
P 3050 4300
AR Path="/60C37703/60C54D80/60BB6664" Ref="R26"  Part="1" 
AR Path="/60C73D08/60BB6664" Ref="R?"  Part="1" 
F 0 "R?" H 3120 4346 50  0000 L CNN
F 1 "1k" H 3120 4255 50  0000 L CNN
F 2 "Resistor_SMD:R_01005_0402Metric" V 2980 4300 50  0001 C CNN
F 3 "~" H 3050 4300 50  0001 C CNN
	1    3050 4300
	1    0    0    -1  
$EndComp
$Comp
L Device:R R1
U 1 1 60BB7BC7
P 5450 1200
AR Path="/60C37703/60C54D80/60BB7BC7" Ref="R1"  Part="1" 
AR Path="/60C73D08/60BB7BC7" Ref="R?"  Part="1" 
F 0 "R?" V 5243 1200 50  0000 C CNN
F 1 "1k" V 5334 1200 50  0000 C CNN
F 2 "Resistor_SMD:R_01005_0402Metric" V 5380 1200 50  0001 C CNN
F 3 "~" H 5450 1200 50  0001 C CNN
	1    5450 1200
	0    1    1    0   
$EndComp
$Comp
L Device:R R24
U 1 1 60BB8968
P 3700 850
AR Path="/60C37703/60C54D80/60BB8968" Ref="R24"  Part="1" 
AR Path="/60C73D08/60BB8968" Ref="R?"  Part="1" 
F 0 "R?" H 3770 896 50  0000 L CNN
F 1 "1k" H 3770 805 50  0000 L CNN
F 2 "Resistor_SMD:R_01005_0402Metric" V 3630 850 50  0001 C CNN
F 3 "~" H 3700 850 50  0001 C CNN
	1    3700 850 
	1    0    0    -1  
$EndComp
$Comp
L Device:R R23
U 1 1 60BB9FE9
P 3700 1650
AR Path="/60C37703/60C54D80/60BB9FE9" Ref="R23"  Part="1" 
AR Path="/60C73D08/60BB9FE9" Ref="R?"  Part="1" 
F 0 "R?" H 3770 1696 50  0000 L CNN
F 1 "1k" H 3770 1605 50  0000 L CNN
F 2 "Resistor_SMD:R_01005_0402Metric" V 3630 1650 50  0001 C CNN
F 3 "~" H 3700 1650 50  0001 C CNN
	1    3700 1650
	1    0    0    -1  
$EndComp
$Comp
L Device:R R22
U 1 1 60BBA77D
P 3700 2500
AR Path="/60C37703/60C54D80/60BBA77D" Ref="R22"  Part="1" 
AR Path="/60C73D08/60BBA77D" Ref="R?"  Part="1" 
F 0 "R?" H 3770 2546 50  0000 L CNN
F 1 "1k" H 3770 2455 50  0000 L CNN
F 2 "Resistor_SMD:R_01005_0402Metric" V 3630 2500 50  0001 C CNN
F 3 "~" H 3700 2500 50  0001 C CNN
	1    3700 2500
	1    0    0    -1  
$EndComp
$Comp
L Device:R R21
U 1 1 60BBAE57
P 3700 3450
AR Path="/60C37703/60C54D80/60BBAE57" Ref="R21"  Part="1" 
AR Path="/60C73D08/60BBAE57" Ref="R?"  Part="1" 
F 0 "R?" H 3770 3496 50  0000 L CNN
F 1 "1k" H 3770 3405 50  0000 L CNN
F 2 "Resistor_SMD:R_01005_0402Metric" V 3630 3450 50  0001 C CNN
F 3 "~" H 3700 3450 50  0001 C CNN
	1    3700 3450
	1    0    0    -1  
$EndComp
$Comp
L Device:R R20
U 1 1 60BBB4AE
P 3700 4200
AR Path="/60C37703/60C54D80/60BBB4AE" Ref="R20"  Part="1" 
AR Path="/60C73D08/60BBB4AE" Ref="R?"  Part="1" 
F 0 "R?" H 3770 4246 50  0000 L CNN
F 1 "1k" H 3770 4155 50  0000 L CNN
F 2 "Resistor_SMD:R_01005_0402Metric" V 3630 4200 50  0001 C CNN
F 3 "~" H 3700 4200 50  0001 C CNN
	1    3700 4200
	1    0    0    -1  
$EndComp
$Comp
L Device:R R19
U 1 1 60BBBB10
P 3700 5150
AR Path="/60C37703/60C54D80/60BBBB10" Ref="R19"  Part="1" 
AR Path="/60C73D08/60BBBB10" Ref="R?"  Part="1" 
F 0 "R?" H 3770 5196 50  0000 L CNN
F 1 "1k" H 3770 5105 50  0000 L CNN
F 2 "Resistor_SMD:R_01005_0402Metric" V 3630 5150 50  0001 C CNN
F 3 "~" H 3700 5150 50  0001 C CNN
	1    3700 5150
	1    0    0    -1  
$EndComp
$Comp
L Device:R R18
U 1 1 60BBC16C
P 3700 6000
AR Path="/60C37703/60C54D80/60BBC16C" Ref="R18"  Part="1" 
AR Path="/60C73D08/60BBC16C" Ref="R?"  Part="1" 
F 0 "R?" H 3770 6046 50  0000 L CNN
F 1 "1k" H 3770 5955 50  0000 L CNN
F 2 "Resistor_SMD:R_01005_0402Metric" V 3630 6000 50  0001 C CNN
F 3 "~" H 3700 6000 50  0001 C CNN
	1    3700 6000
	1    0    0    -1  
$EndComp
$Comp
L Device:R R17
U 1 1 60BBC7F3
P 3700 6750
AR Path="/60C37703/60C54D80/60BBC7F3" Ref="R17"  Part="1" 
AR Path="/60C73D08/60BBC7F3" Ref="R?"  Part="1" 
F 0 "R?" H 3770 6796 50  0000 L CNN
F 1 "1k" H 3770 6705 50  0000 L CNN
F 2 "Resistor_SMD:R_01005_0402Metric" V 3630 6750 50  0001 C CNN
F 3 "~" H 3700 6750 50  0001 C CNN
	1    3700 6750
	1    0    0    -1  
$EndComp
$Comp
L Device:R R8
U 1 1 60BBCE9F
P 5300 7150
AR Path="/60C37703/60C54D80/60BBCE9F" Ref="R8"  Part="1" 
AR Path="/60C73D08/60BBCE9F" Ref="R?"  Part="1" 
F 0 "R?" V 5093 7150 50  0000 C CNN
F 1 "1k" V 5184 7150 50  0000 C CNN
F 2 "Resistor_SMD:R_01005_0402Metric" V 5230 7150 50  0001 C CNN
F 3 "~" H 5300 7150 50  0001 C CNN
	1    5300 7150
	0    1    1    0   
$EndComp
$Comp
L Device:R R7
U 1 1 60BBD752
P 5450 6300
AR Path="/60C37703/60C54D80/60BBD752" Ref="R7"  Part="1" 
AR Path="/60C73D08/60BBD752" Ref="R?"  Part="1" 
F 0 "R?" V 5243 6300 50  0000 C CNN
F 1 "1k" V 5334 6300 50  0000 C CNN
F 2 "Resistor_SMD:R_01005_0402Metric" V 5380 6300 50  0001 C CNN
F 3 "~" H 5450 6300 50  0001 C CNN
	1    5450 6300
	0    1    1    0   
$EndComp
$Comp
L Device:R R6
U 1 1 60BBE243
P 5450 5450
AR Path="/60C37703/60C54D80/60BBE243" Ref="R6"  Part="1" 
AR Path="/60C73D08/60BBE243" Ref="R?"  Part="1" 
F 0 "R?" V 5243 5450 50  0000 C CNN
F 1 "1k" V 5334 5450 50  0000 C CNN
F 2 "Resistor_SMD:R_01005_0402Metric" V 5380 5450 50  0001 C CNN
F 3 "~" H 5450 5450 50  0001 C CNN
	1    5450 5450
	0    1    1    0   
$EndComp
$Comp
L Device:R R5
U 1 1 60BBEB7D
P 5450 4600
AR Path="/60C37703/60C54D80/60BBEB7D" Ref="R5"  Part="1" 
AR Path="/60C73D08/60BBEB7D" Ref="R?"  Part="1" 
F 0 "R?" V 5243 4600 50  0000 C CNN
F 1 "1k" V 5334 4600 50  0000 C CNN
F 2 "Resistor_SMD:R_01005_0402Metric" V 5380 4600 50  0001 C CNN
F 3 "~" H 5450 4600 50  0001 C CNN
	1    5450 4600
	0    1    1    0   
$EndComp
$Comp
L Device:R R4
U 1 1 60BBF2D1
P 5450 3750
AR Path="/60C37703/60C54D80/60BBF2D1" Ref="R4"  Part="1" 
AR Path="/60C73D08/60BBF2D1" Ref="R?"  Part="1" 
F 0 "R?" V 5243 3750 50  0000 C CNN
F 1 "1k" V 5334 3750 50  0000 C CNN
F 2 "Resistor_SMD:R_01005_0402Metric" V 5380 3750 50  0001 C CNN
F 3 "~" H 5450 3750 50  0001 C CNN
	1    5450 3750
	0    1    1    0   
$EndComp
$Comp
L Device:R R3
U 1 1 60BC078E
P 5450 2900
AR Path="/60C37703/60C54D80/60BC078E" Ref="R3"  Part="1" 
AR Path="/60C73D08/60BC078E" Ref="R?"  Part="1" 
F 0 "R?" V 5243 2900 50  0000 C CNN
F 1 "1k" V 5334 2900 50  0000 C CNN
F 2 "Resistor_SMD:R_01005_0402Metric" V 5380 2900 50  0001 C CNN
F 3 "~" H 5450 2900 50  0001 C CNN
	1    5450 2900
	0    1    1    0   
$EndComp
$Comp
L Device:R R2
U 1 1 60BC0F27
P 5450 2050
AR Path="/60C37703/60C54D80/60BC0F27" Ref="R2"  Part="1" 
AR Path="/60C73D08/60BC0F27" Ref="R?"  Part="1" 
F 0 "R?" V 5243 2050 50  0000 C CNN
F 1 "1k" V 5334 2050 50  0000 C CNN
F 2 "Resistor_SMD:R_01005_0402Metric" V 5380 2050 50  0001 C CNN
F 3 "~" H 5450 2050 50  0001 C CNN
	1    5450 2050
	0    1    1    0   
$EndComp
$Comp
L Device:R R16
U 1 1 60BC1652
P 10550 1550
AR Path="/60C37703/60C54D80/60BC1652" Ref="R16"  Part="1" 
AR Path="/60C73D08/60BC1652" Ref="R?"  Part="1" 
F 0 "R?" H 10620 1596 50  0000 L CNN
F 1 "1k" H 10620 1505 50  0000 L CNN
F 2 "Resistor_SMD:R_01005_0402Metric" V 10480 1550 50  0001 C CNN
F 3 "~" H 10550 1550 50  0001 C CNN
	1    10550 1550
	1    0    0    -1  
$EndComp
$Comp
L Device:R R15
U 1 1 60BC2419
P 9900 2400
AR Path="/60C37703/60C54D80/60BC2419" Ref="R15"  Part="1" 
AR Path="/60C73D08/60BC2419" Ref="R?"  Part="1" 
F 0 "R?" H 9970 2446 50  0000 L CNN
F 1 "1k" H 9970 2355 50  0000 L CNN
F 2 "Resistor_SMD:R_01005_0402Metric" V 9830 2400 50  0001 C CNN
F 3 "~" H 9900 2400 50  0001 C CNN
	1    9900 2400
	1    0    0    -1  
$EndComp
$Comp
L Device:R R14
U 1 1 60BC24D7
P 9300 3250
AR Path="/60C37703/60C54D80/60BC24D7" Ref="R14"  Part="1" 
AR Path="/60C73D08/60BC24D7" Ref="R?"  Part="1" 
F 0 "R?" H 9370 3296 50  0000 L CNN
F 1 "1k" H 9370 3205 50  0000 L CNN
F 2 "Resistor_SMD:R_01005_0402Metric" V 9230 3250 50  0001 C CNN
F 3 "~" H 9300 3250 50  0001 C CNN
	1    9300 3250
	1    0    0    -1  
$EndComp
$Comp
L Device:R R13
U 1 1 60BC2C3C
P 8750 4100
AR Path="/60C37703/60C54D80/60BC2C3C" Ref="R13"  Part="1" 
AR Path="/60C73D08/60BC2C3C" Ref="R?"  Part="1" 
F 0 "R?" H 8820 4146 50  0000 L CNN
F 1 "1k" H 8820 4055 50  0000 L CNN
F 2 "Resistor_SMD:R_01005_0402Metric" V 8680 4100 50  0001 C CNN
F 3 "~" H 8750 4100 50  0001 C CNN
	1    8750 4100
	1    0    0    -1  
$EndComp
$Comp
L Device:R R11
U 1 1 60BC33B6
P 7400 5800
AR Path="/60C37703/60C54D80/60BC33B6" Ref="R11"  Part="1" 
AR Path="/60C73D08/60BC33B6" Ref="R?"  Part="1" 
F 0 "R?" H 7470 5846 50  0000 L CNN
F 1 "1k" H 7470 5755 50  0000 L CNN
F 2 "Resistor_SMD:R_01005_0402Metric" V 7330 5800 50  0001 C CNN
F 3 "~" H 7400 5800 50  0001 C CNN
	1    7400 5800
	1    0    0    -1  
$EndComp
$Comp
L Device:R R10
U 1 1 60BC3B3B
P 6700 6650
AR Path="/60C37703/60C54D80/60BC3B3B" Ref="R10"  Part="1" 
AR Path="/60C73D08/60BC3B3B" Ref="R?"  Part="1" 
F 0 "R?" H 6770 6696 50  0000 L CNN
F 1 "1k" H 6770 6605 50  0000 L CNN
F 2 "Resistor_SMD:R_01005_0402Metric" V 6630 6650 50  0001 C CNN
F 3 "~" H 6700 6650 50  0001 C CNN
	1    6700 6650
	1    0    0    -1  
$EndComp
$Comp
L Device:R R9
U 1 1 60BC42CB
P 5850 7500
AR Path="/60C37703/60C54D80/60BC42CB" Ref="R9"  Part="1" 
AR Path="/60C73D08/60BC42CB" Ref="R?"  Part="1" 
F 0 "R?" H 5920 7546 50  0000 L CNN
F 1 "1k" H 5920 7455 50  0000 L CNN
F 2 "Resistor_SMD:R_01005_0402Metric" V 5780 7500 50  0001 C CNN
F 3 "~" H 5850 7500 50  0001 C CNN
	1    5850 7500
	1    0    0    -1  
$EndComp
$Comp
L Device:R R12
U 1 1 60BC7D1E
P 8150 4950
AR Path="/60C37703/60C54D80/60BC7D1E" Ref="R12"  Part="1" 
AR Path="/60C73D08/60BC7D1E" Ref="R?"  Part="1" 
F 0 "R?" H 8220 4996 50  0000 L CNN
F 1 "1k" H 8220 4905 50  0000 L CNN
F 2 "Resistor_SMD:R_01005_0402Metric" V 8080 4950 50  0001 C CNN
F 3 "~" H 8150 4950 50  0001 C CNN
	1    8150 4950
	1    0    0    -1  
$EndComp
$Comp
L Amplifier_Operational:ADA4075-2 U1
U 1 1 60BFCCAD
P 4550 1200
AR Path="/60C37703/60C54D80/60BFCCAD" Ref="U1"  Part="1" 
AR Path="/60C73D08/60BFCCAD" Ref="U?"  Part="1" 
F 0 "U?" H 4550 1567 50  0000 C CNN
F 1 "ADA4075-2" H 4550 1476 50  0000 C CNN
F 2 "Package_SO:MSOP-8_3x3mm_P0.65mm" H 4550 1200 50  0001 C CNN
F 3 "https://www.analog.com/static/imported-files/data_sheets/ADA4075-2.pdf" H 4550 1200 50  0001 C CNN
	1    4550 1200
	1    0    0    -1  
$EndComp
$Comp
L Amplifier_Operational:ADA4075-2 U1
U 2 1 60BFED5F
P 4550 2050
AR Path="/60C37703/60C54D80/60BFED5F" Ref="U1"  Part="2" 
AR Path="/60C73D08/60BFED5F" Ref="U?"  Part="2" 
F 0 "U?" H 4550 2417 50  0000 C CNN
F 1 "ADA4075-2" H 4550 2326 50  0000 C CNN
F 2 "Package_SO:MSOP-8_3x3mm_P0.65mm" H 4550 2050 50  0001 C CNN
F 3 "https://www.analog.com/static/imported-files/data_sheets/ADA4075-2.pdf" H 4550 2050 50  0001 C CNN
	2    4550 2050
	1    0    0    -1  
$EndComp
$Comp
L Amplifier_Operational:ADA4075-2 U1
U 3 1 60C00DD3
P 5300 1700
AR Path="/60C37703/60C54D80/60C00DD3" Ref="U1"  Part="3" 
AR Path="/60C73D08/60C00DD3" Ref="U?"  Part="3" 
F 0 "U?" V 4975 1700 50  0000 C CNN
F 1 "ADA4075-2" V 5066 1700 50  0000 C CNN
F 2 "Package_SO:MSOP-8_3x3mm_P0.65mm" H 5300 1700 50  0001 C CNN
F 3 "https://www.analog.com/static/imported-files/data_sheets/ADA4075-2.pdf" H 5300 1700 50  0001 C CNN
	3    5300 1700
	0    1    1    0   
$EndComp
$Comp
L Amplifier_Operational:ADA4075-2 U2
U 1 1 60C07347
P 4550 2900
AR Path="/60C37703/60C54D80/60C07347" Ref="U2"  Part="1" 
AR Path="/60C73D08/60C07347" Ref="U?"  Part="1" 
F 0 "U?" H 4550 3267 50  0000 C CNN
F 1 "ADA4075-2" H 4550 3176 50  0000 C CNN
F 2 "Package_SO:MSOP-8_3x3mm_P0.65mm" H 4550 2900 50  0001 C CNN
F 3 "https://www.analog.com/static/imported-files/data_sheets/ADA4075-2.pdf" H 4550 2900 50  0001 C CNN
	1    4550 2900
	1    0    0    -1  
$EndComp
$Comp
L Amplifier_Operational:ADA4075-2 U2
U 2 1 60C0CD83
P 4550 3750
AR Path="/60C37703/60C54D80/60C0CD83" Ref="U2"  Part="2" 
AR Path="/60C73D08/60C0CD83" Ref="U?"  Part="2" 
F 0 "U?" H 4550 4117 50  0000 C CNN
F 1 "ADA4075-2" H 4550 4026 50  0000 C CNN
F 2 "Package_SO:MSOP-8_3x3mm_P0.65mm" H 4550 3750 50  0001 C CNN
F 3 "https://www.analog.com/static/imported-files/data_sheets/ADA4075-2.pdf" H 4550 3750 50  0001 C CNN
	2    4550 3750
	1    0    0    -1  
$EndComp
$Comp
L Amplifier_Operational:ADA4075-2 U2
U 3 1 60C0EC3B
P 5300 3400
AR Path="/60C37703/60C54D80/60C0EC3B" Ref="U2"  Part="3" 
AR Path="/60C73D08/60C0EC3B" Ref="U?"  Part="3" 
F 0 "U?" V 4975 3400 50  0000 C CNN
F 1 "ADA4075-2" V 5066 3400 50  0000 C CNN
F 2 "Package_SO:MSOP-8_3x3mm_P0.65mm" H 5300 3400 50  0001 C CNN
F 3 "https://www.analog.com/static/imported-files/data_sheets/ADA4075-2.pdf" H 5300 3400 50  0001 C CNN
	3    5300 3400
	0    1    1    0   
$EndComp
$Comp
L Amplifier_Operational:ADA4075-2 U3
U 1 1 60C1388D
P 4550 4600
AR Path="/60C37703/60C54D80/60C1388D" Ref="U3"  Part="1" 
AR Path="/60C73D08/60C1388D" Ref="U?"  Part="1" 
F 0 "U?" H 4550 4967 50  0000 C CNN
F 1 "ADA4075-2" H 4550 4876 50  0000 C CNN
F 2 "Package_SO:MSOP-8_3x3mm_P0.65mm" H 4550 4600 50  0001 C CNN
F 3 "https://www.analog.com/static/imported-files/data_sheets/ADA4075-2.pdf" H 4550 4600 50  0001 C CNN
	1    4550 4600
	1    0    0    -1  
$EndComp
$Comp
L Amplifier_Operational:ADA4075-2 U3
U 2 1 60C15DE3
P 4550 5450
AR Path="/60C37703/60C54D80/60C15DE3" Ref="U3"  Part="2" 
AR Path="/60C73D08/60C15DE3" Ref="U?"  Part="2" 
F 0 "U?" H 4550 5817 50  0000 C CNN
F 1 "ADA4075-2" H 4550 5726 50  0000 C CNN
F 2 "Package_SO:MSOP-8_3x3mm_P0.65mm" H 4550 5450 50  0001 C CNN
F 3 "https://www.analog.com/static/imported-files/data_sheets/ADA4075-2.pdf" H 4550 5450 50  0001 C CNN
	2    4550 5450
	1    0    0    -1  
$EndComp
$Comp
L Amplifier_Operational:ADA4075-2 U3
U 3 1 60C18D2B
P 5400 5150
AR Path="/60C37703/60C54D80/60C18D2B" Ref="U3"  Part="3" 
AR Path="/60C73D08/60C18D2B" Ref="U?"  Part="3" 
F 0 "U?" V 5075 5150 50  0000 C CNN
F 1 "ADA4075-2" V 5166 5150 50  0000 C CNN
F 2 "Package_SO:MSOP-8_3x3mm_P0.65mm" H 5400 5150 50  0001 C CNN
F 3 "https://www.analog.com/static/imported-files/data_sheets/ADA4075-2.pdf" H 5400 5150 50  0001 C CNN
	3    5400 5150
	0    1    1    0   
$EndComp
$Comp
L Amplifier_Operational:ADA4075-2 U4
U 1 1 60C1CAA0
P 4550 6300
AR Path="/60C37703/60C54D80/60C1CAA0" Ref="U4"  Part="1" 
AR Path="/60C73D08/60C1CAA0" Ref="U?"  Part="1" 
F 0 "U?" H 4550 6667 50  0000 C CNN
F 1 "ADA4075-2" H 4550 6576 50  0000 C CNN
F 2 "Package_SO:MSOP-8_3x3mm_P0.65mm" H 4550 6300 50  0001 C CNN
F 3 "https://www.analog.com/static/imported-files/data_sheets/ADA4075-2.pdf" H 4550 6300 50  0001 C CNN
	1    4550 6300
	1    0    0    -1  
$EndComp
$Comp
L Amplifier_Operational:ADA4075-2 U4
U 2 1 60C1F405
P 4550 7150
AR Path="/60C37703/60C54D80/60C1F405" Ref="U4"  Part="2" 
AR Path="/60C73D08/60C1F405" Ref="U?"  Part="2" 
F 0 "U?" H 4550 7517 50  0000 C CNN
F 1 "ADA4075-2" H 4550 7426 50  0000 C CNN
F 2 "Package_SO:MSOP-8_3x3mm_P0.65mm" H 4550 7150 50  0001 C CNN
F 3 "https://www.analog.com/static/imported-files/data_sheets/ADA4075-2.pdf" H 4550 7150 50  0001 C CNN
	2    4550 7150
	1    0    0    -1  
$EndComp
$Comp
L Amplifier_Operational:ADA4075-2 U4
U 3 1 60C20D13
P 5250 6750
AR Path="/60C37703/60C54D80/60C20D13" Ref="U4"  Part="3" 
AR Path="/60C73D08/60C20D13" Ref="U?"  Part="3" 
F 0 "U?" V 4925 6750 50  0000 C CNN
F 1 "ADA4075-2" V 5016 6750 50  0000 C CNN
F 2 "Package_SO:MSOP-8_3x3mm_P0.65mm" H 5250 6750 50  0001 C CNN
F 3 "https://www.analog.com/static/imported-files/data_sheets/ADA4075-2.pdf" H 5250 6750 50  0001 C CNN
	3    5250 6750
	0    1    1    0   
$EndComp
$Comp
L power:GND #PWR0118
U 1 1 60C249D3
P 5000 1600
AR Path="/60C37703/60C54D80/60C249D3" Ref="#PWR0118"  Part="1" 
AR Path="/60C73D08/60C249D3" Ref="#PWR?"  Part="1" 
F 0 "#PWR?" H 5000 1350 50  0001 C CNN
F 1 "GND" V 5005 1472 50  0000 R CNN
F 2 "" H 5000 1600 50  0001 C CNN
F 3 "" H 5000 1600 50  0001 C CNN
	1    5000 1600
	0    1    1    0   
$EndComp
$Comp
L power:+5V #PWR0119
U 1 1 60C26044
P 5600 1600
AR Path="/60C37703/60C54D80/60C26044" Ref="#PWR0119"  Part="1" 
AR Path="/60C73D08/60C26044" Ref="#PWR?"  Part="1" 
F 0 "#PWR?" H 5600 1450 50  0001 C CNN
F 1 "+5V" V 5615 1728 50  0000 L CNN
F 2 "" H 5600 1600 50  0001 C CNN
F 3 "" H 5600 1600 50  0001 C CNN
	1    5600 1600
	0    1    1    0   
$EndComp
$Comp
L power:+5V #PWR0120
U 1 1 60C26B55
P 5600 3300
AR Path="/60C37703/60C54D80/60C26B55" Ref="#PWR0120"  Part="1" 
AR Path="/60C73D08/60C26B55" Ref="#PWR?"  Part="1" 
F 0 "#PWR?" H 5600 3150 50  0001 C CNN
F 1 "+5V" V 5615 3428 50  0000 L CNN
F 2 "" H 5600 3300 50  0001 C CNN
F 3 "" H 5600 3300 50  0001 C CNN
	1    5600 3300
	0    1    1    0   
$EndComp
$Comp
L power:+5V #PWR0121
U 1 1 60C27B1F
P 5700 5050
AR Path="/60C37703/60C54D80/60C27B1F" Ref="#PWR0121"  Part="1" 
AR Path="/60C73D08/60C27B1F" Ref="#PWR?"  Part="1" 
F 0 "#PWR?" H 5700 4900 50  0001 C CNN
F 1 "+5V" V 5715 5178 50  0000 L CNN
F 2 "" H 5700 5050 50  0001 C CNN
F 3 "" H 5700 5050 50  0001 C CNN
	1    5700 5050
	0    1    1    0   
$EndComp
$Comp
L power:+5V #PWR0122
U 1 1 60C29284
P 5550 6650
AR Path="/60C37703/60C54D80/60C29284" Ref="#PWR0122"  Part="1" 
AR Path="/60C73D08/60C29284" Ref="#PWR?"  Part="1" 
F 0 "#PWR?" H 5550 6500 50  0001 C CNN
F 1 "+5V" V 5565 6778 50  0000 L CNN
F 2 "" H 5550 6650 50  0001 C CNN
F 3 "" H 5550 6650 50  0001 C CNN
	1    5550 6650
	0    1    1    0   
$EndComp
$Comp
L power:GND #PWR0123
U 1 1 60C2A5D4
P 5000 3300
AR Path="/60C37703/60C54D80/60C2A5D4" Ref="#PWR0123"  Part="1" 
AR Path="/60C73D08/60C2A5D4" Ref="#PWR?"  Part="1" 
F 0 "#PWR?" H 5000 3050 50  0001 C CNN
F 1 "GND" V 5005 3172 50  0000 R CNN
F 2 "" H 5000 3300 50  0001 C CNN
F 3 "" H 5000 3300 50  0001 C CNN
	1    5000 3300
	0    1    1    0   
$EndComp
$Comp
L power:GND #PWR0124
U 1 1 60C2C570
P 5100 5050
AR Path="/60C37703/60C54D80/60C2C570" Ref="#PWR0124"  Part="1" 
AR Path="/60C73D08/60C2C570" Ref="#PWR?"  Part="1" 
F 0 "#PWR?" H 5100 4800 50  0001 C CNN
F 1 "GND" V 5105 4922 50  0000 R CNN
F 2 "" H 5100 5050 50  0001 C CNN
F 3 "" H 5100 5050 50  0001 C CNN
	1    5100 5050
	0    1    1    0   
$EndComp
$Comp
L power:GND #PWR0125
U 1 1 60C2CCD9
P 4950 6650
AR Path="/60C37703/60C54D80/60C2CCD9" Ref="#PWR0125"  Part="1" 
AR Path="/60C73D08/60C2CCD9" Ref="#PWR?"  Part="1" 
F 0 "#PWR?" H 4950 6400 50  0001 C CNN
F 1 "GND" V 4955 6522 50  0000 R CNN
F 2 "" H 4950 6650 50  0001 C CNN
F 3 "" H 4950 6650 50  0001 C CNN
	1    4950 6650
	0    1    1    0   
$EndComp
Text HLabel 3300 1100 1    50   Input ~ 0
VOL_OUT
Text HLabel 1300 1400 1    50   Input ~ 0
IN
Text HLabel 1300 3450 0    50   Input ~ 0
OUT
$EndSCHEMATC
